module gitlab.com/joltify/joltifychain-bridge

go 1.20

require (
	cosmossdk.io/math v1.0.0-rc.0
	github.com/cenkalti/backoff/v4 v4.2.0
	github.com/cosmos/cosmos-sdk v0.46.13
	github.com/ethereum/go-ethereum v1.10.26
	github.com/gogo/protobuf v1.3.3
	github.com/gorilla/mux v1.8.0
	github.com/ipfs/go-log v1.0.5
	github.com/joltify-finance/joltify_lending v0.0.8-0.20231018081708-db8143661cbc
	github.com/joltify-finance/tss v1.8.1
	github.com/multiformats/go-multiaddr v0.9.0
	github.com/pkg/errors v0.9.1
	github.com/prometheus/client_golang v1.15.1
	github.com/rs/zerolog v1.29.1
	github.com/stretchr/testify v1.8.3
	github.com/tendermint/btcd v0.1.1
	github.com/tendermint/tendermint v0.34.28
	go.uber.org/atomic v1.11.0
	golang.org/x/crypto v0.9.0
	golang.org/x/term v0.8.0
	google.golang.org/grpc v1.54.0
	gopkg.in/check.v1 v1.0.0-20201130134442-10cb98267c6c
	gotest.tools v2.2.0+incompatible
)

require (
	cloud.google.com/go v0.110.0 // indirect
	cloud.google.com/go/compute v1.18.0 // indirect
	cloud.google.com/go/compute/metadata v0.2.3 // indirect
	cloud.google.com/go/iam v0.12.0 // indirect
	cloud.google.com/go/storage v1.28.1 // indirect
	cosmossdk.io/errors v1.0.0-beta.7 // indirect
	filippo.io/edwards25519 v1.0.0-rc.1 // indirect
	github.com/99designs/go-keychain v0.0.0-20191008050251-8e49817e8af4 // indirect
	github.com/99designs/keyring v1.2.1 // indirect
	github.com/ChainSafe/go-schnorrkel v1.0.0 // indirect
	github.com/StackExchange/wmi v1.2.1 // indirect
	github.com/VictoriaMetrics/fastcache v1.6.0 // indirect
	github.com/Workiva/go-datastructures v1.0.53 // indirect
	github.com/agl/ed25519 v0.0.0-20200225211852-fd4d107ace12 // indirect
	github.com/armon/go-metrics v0.4.1 // indirect
	github.com/aws/aws-sdk-go v1.44.122 // indirect
	github.com/benbjohnson/clock v1.3.5 // indirect
	github.com/beorn7/perks v1.0.1 // indirect
	github.com/bgentry/go-netrc v0.0.0-20140422174119-9fd32a8b3d3d // indirect
	github.com/bgentry/speakeasy v0.1.1-0.20220910012023-760eaf8b6816 // indirect
	github.com/binance-chain/tss-lib v0.0.0-20201118045712-70b2cb4bf916 // indirect
	github.com/blang/semver v3.5.1+incompatible // indirect
	github.com/btcsuite/btcd v0.23.4 // indirect
	github.com/btcsuite/btcd/btcec/v2 v2.3.2 // indirect
	github.com/btcsuite/btcd/btcutil v1.1.3 // indirect
	github.com/btcsuite/btcd/chaincfg/chainhash v1.0.1 // indirect
	github.com/cespare/xxhash v1.1.0 // indirect
	github.com/cespare/xxhash/v2 v2.2.0 // indirect
	github.com/chzyer/readline v1.5.1 // indirect
	github.com/cockroachdb/apd/v2 v2.0.2 // indirect
	github.com/coinbase/rosetta-sdk-go v0.7.9 // indirect
	github.com/cometbft/cometbft-db v0.7.0 // indirect
	github.com/confio/ics23/go v0.9.0 // indirect
	github.com/containerd/cgroups v1.1.0 // indirect
	github.com/coreos/go-systemd/v22 v22.5.0 // indirect
	github.com/cosmos/btcutil v1.0.5 // indirect
	github.com/cosmos/cosmos-proto v1.0.0-beta.3 // indirect
	github.com/cosmos/go-bip39 v1.0.0 // indirect
	github.com/cosmos/gogoproto v1.4.7 // indirect
	github.com/cosmos/gorocksdb v1.2.0 // indirect
	github.com/cosmos/iavl v0.19.6 // indirect
	github.com/cosmos/ibc-go/v6 v6.1.0 // indirect
	github.com/cosmos/ledger-cosmos-go v0.12.2 // indirect
	github.com/cpuguy83/go-md2man/v2 v2.0.2 // indirect
	github.com/creachadair/taskgroup v0.3.2 // indirect
	github.com/danieljoos/wincred v1.1.2 // indirect
	github.com/davecgh/go-spew v1.1.1 // indirect
	github.com/davidlazar/go-crypto v0.0.0-20200604182044-b73af7476f6c // indirect
	github.com/deckarep/golang-set v1.8.0 // indirect
	github.com/decred/dcrd/dcrec/edwards/v2 v2.0.0 // indirect
	github.com/decred/dcrd/dcrec/secp256k1/v4 v4.2.0 // indirect
	github.com/desertbit/timer v0.0.0-20180107155436-c41aec40b27f // indirect
	github.com/dgraph-io/badger/v2 v2.2007.4 // indirect
	github.com/dgraph-io/ristretto v0.1.0 // indirect
	github.com/dgryski/go-farm v0.0.0-20200201041132-a6ae2369ad13 // indirect
	github.com/dlclark/regexp2 v1.4.1-0.20201116162257-a2a8dda75c91 // indirect
	github.com/docker/go-units v0.5.0 // indirect
	github.com/dop251/goja v0.0.0-20220405120441-9037c2b61cbf // indirect
	github.com/dustin/go-humanize v1.0.1-0.20200219035652-afde56e7acac // indirect
	github.com/dvsekhvalnov/jose2go v1.5.0 // indirect
	github.com/edsrzf/mmap-go v1.0.0 // indirect
	github.com/elastic/gosigar v0.14.2 // indirect
	github.com/evmos/ethermint v0.22.0 // indirect
	github.com/felixge/httpsnoop v1.0.1 // indirect
	github.com/fjl/memsize v0.0.0-20190710130421-bcb5799ab5e5 // indirect
	github.com/flynn/noise v1.0.0 // indirect
	github.com/francoispqt/gojay v1.2.13 // indirect
	github.com/fsnotify/fsnotify v1.6.0 // indirect
	github.com/gballet/go-libpcsclite v0.0.0-20190607065134-2772fd86a8ff // indirect
	github.com/go-kit/kit v0.12.0 // indirect
	github.com/go-kit/log v0.2.1 // indirect
	github.com/go-logfmt/logfmt v0.5.1 // indirect
	github.com/go-logr/logr v1.2.4 // indirect
	github.com/go-logr/stdr v1.2.2 // indirect
	github.com/go-ole/go-ole v1.2.6 // indirect
	github.com/go-playground/validator/v10 v10.4.1 // indirect
	github.com/go-sourcemap/sourcemap v2.1.3+incompatible // indirect
	github.com/go-stack/stack v1.8.1 // indirect
	github.com/go-task/slim-sprig v0.0.0-20230315185526-52ccab3ef572 // indirect
	github.com/godbus/dbus v0.0.0-20190726142602-4481cbc300e2 // indirect
	github.com/godbus/dbus/v5 v5.1.0 // indirect
	github.com/gogo/gateway v1.1.0 // indirect
	github.com/golang-jwt/jwt/v4 v4.3.0 // indirect
	github.com/golang/glog v1.0.0 // indirect
	github.com/golang/groupcache v0.0.0-20210331224755-41bb18bfe9da // indirect
	github.com/golang/mock v1.6.0 // indirect
	github.com/golang/protobuf v1.5.3 // indirect
	github.com/golang/snappy v0.0.4 // indirect
	github.com/google/btree v1.1.2 // indirect
	github.com/google/go-cmp v0.5.9 // indirect
	github.com/google/gopacket v1.1.19 // indirect
	github.com/google/orderedcode v0.0.1 // indirect
	github.com/google/pprof v0.0.0-20230510103437-eeec1cb781c3 // indirect
	github.com/google/uuid v1.3.0 // indirect
	github.com/googleapis/enterprise-certificate-proxy v0.2.3 // indirect
	github.com/googleapis/gax-go/v2 v2.7.0 // indirect
	github.com/gorilla/handlers v1.5.1 // indirect
	github.com/gorilla/websocket v1.5.0 // indirect
	github.com/grpc-ecosystem/go-grpc-middleware v1.3.0 // indirect
	github.com/grpc-ecosystem/grpc-gateway v1.16.0 // indirect
	github.com/gsterjov/go-libsecret v0.0.0-20161001094733-a6f4afe4910c // indirect
	github.com/gtank/merlin v0.1.1 // indirect
	github.com/gtank/ristretto255 v0.1.2 // indirect
	github.com/hashicorp/errwrap v1.1.0 // indirect
	github.com/hashicorp/go-bexpr v0.1.10 // indirect
	github.com/hashicorp/go-cleanhttp v0.5.2 // indirect
	github.com/hashicorp/go-getter v1.7.0 // indirect
	github.com/hashicorp/go-immutable-radix v1.3.1 // indirect
	github.com/hashicorp/go-multierror v1.1.1 // indirect
	github.com/hashicorp/go-safetemp v1.0.0 // indirect
	github.com/hashicorp/go-version v1.6.0 // indirect
	github.com/hashicorp/golang-lru v0.5.5-0.20210104140557-80c98217689d // indirect
	github.com/hashicorp/hcl v1.0.0 // indirect
	github.com/hdevalence/ed25519consensus v0.0.0-20220222234857-c00d1f31bab3 // indirect
	github.com/holiman/bloomfilter/v2 v2.0.3 // indirect
	github.com/holiman/uint256 v1.2.2 // indirect
	github.com/huin/goupnp v1.2.0 // indirect
	github.com/improbable-eng/grpc-web v0.15.0 // indirect
	github.com/inconshreveable/mousetrap v1.1.0 // indirect
	github.com/ipfs/boxo v0.8.1 // indirect
	github.com/ipfs/go-cid v0.4.1 // indirect
	github.com/ipfs/go-datastore v0.6.0 // indirect
	github.com/ipfs/go-ipfs-util v0.0.2 // indirect
	github.com/ipfs/go-log/v2 v2.5.1 // indirect
	github.com/ipld/go-ipld-prime v0.20.0 // indirect
	github.com/jackpal/go-nat-pmp v1.0.2 // indirect
	github.com/jbenet/go-temp-err-catcher v0.1.0 // indirect
	github.com/jbenet/goprocess v0.1.4 // indirect
	github.com/jmespath/go-jmespath v0.4.0 // indirect
	github.com/jmhodges/levigo v1.0.0 // indirect
	github.com/klauspost/compress v1.16.5 // indirect
	github.com/klauspost/cpuid/v2 v2.2.4 // indirect
	github.com/koron/go-ssdp v0.0.4 // indirect
	github.com/kr/pretty v0.3.1 // indirect
	github.com/kr/text v0.2.0 // indirect
	github.com/labstack/gommon v0.3.0 // indirect
	github.com/lib/pq v1.10.7 // indirect
	github.com/libp2p/go-buffer-pool v0.1.0 // indirect
	github.com/libp2p/go-cidranger v1.1.0 // indirect
	github.com/libp2p/go-flow-metrics v0.1.0 // indirect
	github.com/libp2p/go-libp2p v0.27.3 // indirect
	github.com/libp2p/go-libp2p-asn-util v0.3.0 // indirect
	github.com/libp2p/go-libp2p-kad-dht v0.23.0 // indirect
	github.com/libp2p/go-libp2p-kbucket v0.5.0 // indirect
	github.com/libp2p/go-libp2p-record v0.2.0 // indirect
	github.com/libp2p/go-msgio v0.3.0 // indirect
	github.com/libp2p/go-nat v0.1.0 // indirect
	github.com/libp2p/go-netroute v0.2.1 // indirect
	github.com/libp2p/go-reuseport v0.3.0 // indirect
	github.com/libp2p/go-yamux/v4 v4.0.0 // indirect
	github.com/magiconair/properties v1.8.7 // indirect
	github.com/manifoldco/promptui v0.9.0 // indirect
	github.com/marten-seemann/tcp v0.0.0-20210406111302-dfbc87cc63fd // indirect
	github.com/mattn/go-colorable v0.1.13 // indirect
	github.com/mattn/go-isatty v0.0.19 // indirect
	github.com/mattn/go-runewidth v0.0.10 // indirect
	github.com/matttproud/golang_protobuf_extensions v1.0.4 // indirect
	github.com/miekg/dns v1.1.54 // indirect
	github.com/mikioh/tcpinfo v0.0.0-20190314235526-30a79bb1804b // indirect
	github.com/mikioh/tcpopt v0.0.0-20190314235656-172688c1accc // indirect
	github.com/mimoo/StrobeGo v0.0.0-20210601165009-122bf33a46e0 // indirect
	github.com/minio/highwayhash v1.0.2 // indirect
	github.com/minio/sha256-simd v1.0.0 // indirect
	github.com/mitchellh/go-homedir v1.1.0 // indirect
	github.com/mitchellh/go-testing-interface v1.14.1 // indirect
	github.com/mitchellh/mapstructure v1.5.0 // indirect
	github.com/mitchellh/pointerstructure v1.2.0 // indirect
	github.com/mr-tron/base58 v1.2.0 // indirect
	github.com/mtibben/percent v0.2.1 // indirect
	github.com/multiformats/go-base32 v0.1.0 // indirect
	github.com/multiformats/go-base36 v0.2.0 // indirect
	github.com/multiformats/go-multiaddr-dns v0.3.1 // indirect
	github.com/multiformats/go-multiaddr-fmt v0.1.0 // indirect
	github.com/multiformats/go-multibase v0.2.0 // indirect
	github.com/multiformats/go-multicodec v0.9.0 // indirect
	github.com/multiformats/go-multihash v0.2.1 // indirect
	github.com/multiformats/go-multistream v0.4.1 // indirect
	github.com/multiformats/go-varint v0.0.7 // indirect
	github.com/olekukonko/tablewriter v0.0.5 // indirect
	github.com/onsi/ginkgo/v2 v2.9.5 // indirect
	github.com/opencontainers/runtime-spec v1.1.0-rc.2 // indirect
	github.com/opentracing/opentracing-go v1.2.0 // indirect
	github.com/otiai10/mint v1.3.2 // indirect
	github.com/otiai10/primes v0.0.0-20180210170552-f6d2a1ba97c4 // indirect
	github.com/pbnjay/memory v0.0.0-20210728143218-7b4eea64cf58 // indirect
	github.com/pelletier/go-toml/v2 v2.0.7 // indirect
	github.com/petermattis/goid v0.0.0-20230317030725-371a4b8eda08 // indirect
	github.com/pmezard/go-difflib v1.0.0 // indirect
	github.com/polydawn/refmt v0.89.0 // indirect
	github.com/prometheus/client_model v0.4.0 // indirect
	github.com/prometheus/common v0.44.0 // indirect
	github.com/prometheus/procfs v0.10.0 // indirect
	github.com/prometheus/tsdb v0.7.1 // indirect
	github.com/quic-go/qpack v0.4.0 // indirect
	github.com/quic-go/qtls-go1-19 v0.3.2 // indirect
	github.com/quic-go/qtls-go1-20 v0.2.2 // indirect
	github.com/quic-go/quic-go v0.34.0 // indirect
	github.com/quic-go/webtransport-go v0.5.3 // indirect
	github.com/rakyll/statik v0.1.7 // indirect
	github.com/raulk/go-watchdog v1.3.0 // indirect
	github.com/rcrowley/go-metrics v0.0.0-20201227073835-cf1acfcdf475 // indirect
	github.com/regen-network/cosmos-proto v0.3.1 // indirect
	github.com/rivo/uniseg v0.2.0 // indirect
	github.com/rjeczalik/notify v0.9.1 // indirect
	github.com/rogpeppe/go-internal v1.10.0 // indirect
	github.com/rs/cors v1.8.3 // indirect
	github.com/russross/blackfriday/v2 v2.1.0 // indirect
	github.com/sasha-s/go-deadlock v0.3.1 // indirect
	github.com/shirou/gopsutil v3.21.4-0.20210419000835-c7a38de76ee5+incompatible // indirect
	github.com/spaolacci/murmur3 v1.1.0 // indirect
	github.com/spf13/afero v1.9.3 // indirect
	github.com/spf13/cast v1.5.0 // indirect
	github.com/spf13/cobra v1.7.0 // indirect
	github.com/spf13/jwalterweatherman v1.1.0 // indirect
	github.com/spf13/pflag v1.0.5 // indirect
	github.com/spf13/viper v1.15.0 // indirect
	github.com/status-im/keycard-go v0.2.0 // indirect
	github.com/subosito/gotenv v1.4.2 // indirect
	github.com/syndtr/goleveldb v1.0.1-0.20220721030215-126854af5e6d // indirect
	github.com/tecbot/gorocksdb v0.0.0-20191217155057-f0fad39f321c // indirect
	github.com/tendermint/go-amino v0.16.0 // indirect
	github.com/tendermint/tm-db v0.6.7 // indirect
	github.com/tidwall/btree v1.5.0 // indirect
	github.com/tidwall/gjson v1.14.4 // indirect
	github.com/tidwall/match v1.1.1 // indirect
	github.com/tidwall/pretty v1.2.0 // indirect
	github.com/tidwall/sjson v1.2.5 // indirect
	github.com/tklauser/go-sysconf v0.3.10 // indirect
	github.com/tklauser/numcpus v0.4.0 // indirect
	github.com/tyler-smith/go-bip39 v1.1.0 // indirect
	github.com/ulikunitz/xz v0.5.11 // indirect
	github.com/urfave/cli/v2 v2.10.2 // indirect
	github.com/whyrusleeping/go-keyspace v0.0.0-20160322163242-5b898ac5add1 // indirect
	github.com/xrash/smetrics v0.0.0-20201216005158-039620a65673 // indirect
	github.com/zondax/hid v0.9.1 // indirect
	github.com/zondax/ledger-go v0.14.1 // indirect
	go.etcd.io/bbolt v1.3.6 // indirect
	go.opencensus.io v0.24.0 // indirect
	go.opentelemetry.io/otel v1.16.0 // indirect
	go.opentelemetry.io/otel/metric v1.16.0 // indirect
	go.opentelemetry.io/otel/trace v1.16.0 // indirect
	go.uber.org/dig v1.17.0 // indirect
	go.uber.org/fx v1.19.3 // indirect
	go.uber.org/multierr v1.11.0 // indirect
	go.uber.org/zap v1.24.0 // indirect
	golang.org/x/exp v0.0.0-20230522175609-2e198f4a06a1 // indirect
	golang.org/x/mod v0.10.0 // indirect
	golang.org/x/net v0.10.0 // indirect
	golang.org/x/oauth2 v0.8.0 // indirect
	golang.org/x/sync v0.2.0 // indirect
	golang.org/x/sys v0.8.0 // indirect
	golang.org/x/text v0.9.0 // indirect
	golang.org/x/time v0.1.0 // indirect
	golang.org/x/tools v0.9.1 // indirect
	golang.org/x/xerrors v0.0.0-20220907171357-04be3eba64a2 // indirect
	gonum.org/v1/gonum v0.13.0 // indirect
	google.golang.org/api v0.110.0 // indirect
	google.golang.org/appengine v1.6.7 // indirect
	google.golang.org/genproto v0.0.0-20230306155012-7f2fa6fef1f4 // indirect
	google.golang.org/protobuf v1.30.0 // indirect
	gopkg.in/ini.v1 v1.67.0 // indirect
	gopkg.in/natefinch/npipe.v2 v2.0.0-20160621034901-c1b8fa8bdcce // indirect
	gopkg.in/yaml.v2 v2.4.0 // indirect
	gopkg.in/yaml.v3 v3.0.1 // indirect
	lukechampine.com/blake3 v1.2.1 // indirect
	nhooyr.io/websocket v1.8.7 // indirect
	sigs.k8s.io/yaml v1.3.0 // indirect
)

replace (
	github.com/agl/ed25519 => github.com/binance-chain/edwards25519 v0.0.0-20200305024217-f36fc4b53d43
	github.com/binance-chain/tss-lib => gitlab.com/joltify/tss-lib v0.1.5
	github.com/confio/ics23/go => github.com/cosmos/cosmos-sdk/ics23/go v0.8.0
	github.com/gogo/protobuf => github.com/regen-network/protobuf v1.3.3-alpha.regen.1
	github.com/tendermint/tendermint => github.com/cometbft/cometbft v0.34.29
//google.golang.org/grpc => google.golang.org/grpc v1.33.2
)
